\relax 
\catcode `"\active 
\select@language{portuguese}
\@writefile{toc}{\select@language{portuguese}}
\@writefile{lof}{\select@language{portuguese}}
\@writefile{lot}{\select@language{portuguese}}
\@writefile{toc}{\contentsline {section}{\numberline {1}Introdu\IeC {\c c}\IeC {\~a}o}{1}}
\@writefile{toc}{\contentsline {section}{\numberline {2}Prepara\IeC {\c c}\IeC {\~a}o dos dados}{2}}
\newlabel{s1}{{2}{2}}
\@writefile{toc}{\contentsline {subsection}{\numberline {2.1}Mapeamento de valores}{2}}
\@writefile{toc}{\contentsline {section}{\numberline {3}Imputa\IeC {\c c}\IeC {\~a}o de valores}{3}}
\newlabel{s2}{{3}{3}}
\@writefile{lof}{\contentsline {figure}{\numberline {1}{\ignorespaces Densidade dos modelos imputados (na cor vermelha) comparado com a densidade dos dados reais (na cor azul) do subconjunto de treinamento T1. Na fila superior os gr\IeC {\'a}ficos pertencem as colunas 'completed', 'completed\_post' e 'win\_rate'. Na fila inferior os gr\IeC {\'a}ficos pertencem as colunas 'tries' e 'tbs'. Pode-se observar que os modelos imputados n\IeC {\~a}o fogem muito da distribui\IeC {\c c}\IeC {\~a}o dos dados reais utilizando o algoritmo PMM.}}{4}}
\newlabel{fig1}{{1}{4}}
\citation{hardin2005}
\citation{hardin2005}
\@writefile{toc}{\contentsline {section}{\numberline {4}Detec\IeC {\c c}\IeC {\~a}o de outliers}{5}}
\newlabel{s3}{{4}{5}}
\@writefile{lof}{\contentsline {figure}{\numberline {2}{\ignorespaces Distribui\IeC {\c c}\IeC {\~a}o das distancias de Mahalanobis do subconjunto de dados T1. O gr\IeC {\'a}fico mostra como as distancias se encaixam na distribui\IeC {\c c}\IeC {\~a}o Chi-Quadrado. Os outliers n\IeC {\~a}o se alinham corretamente com a reta que representa a curva normal. Para detectar estes outliers \IeC {\'e} utilizada uma distribui\IeC {\c c}\IeC {\~a}o F. }}{6}}
\newlabel{fig2}{{2}{6}}
\@writefile{lof}{\contentsline {figure}{\numberline {3}{\ignorespaces Distancias de Mahalanobis versus as distancias ajustadas pela distribui\IeC {\c c}\IeC {\~a}o F. Os outliers ficam mais visiveis.}}{7}}
\newlabel{fig3}{{3}{7}}
\bibstyle{plain}
\bibdata{refs.bib}
\@writefile{lof}{\contentsline {figure}{\numberline {4}{\ignorespaces Performance do modelo de regress\IeC {\~a}o linear para v\IeC {\'a}rios valores do par\IeC {\^a}metro lambda. Este par\IeC {\^a}metro \IeC {\'e} estimado de forma autom\IeC {\'a}tica mas pode ser tamb\IeC {\'e}m ajustado de forma manual. Para cada valor de lambda \IeC {\'e} calculado o erro quadr\IeC {\'a}tico m\IeC {\'e}dio do modelo. A biblioteca 'glmnet' oferece um interface de k-fold para fazer cross validation. No nosso caso foi fixado k=50.}}{8}}
\newlabel{fig4}{{4}{8}}
\@writefile{toc}{\contentsline {section}{\numberline {5}Treinamento do modelo de regress\IeC {\~a}o linear}{8}}
\newlabel{s4}{{5}{8}}
\@writefile{lof}{\contentsline {figure}{\numberline {5}{\ignorespaces Performance do modelo de regress\IeC {\~a}o linear para o subconjunto T2 que n\IeC {\~a}o possui data (coluna 'ls\_date'). O valor de k para fazer cross validation tamb\IeC {\'e}m foi de 50.}}{9}}
\newlabel{fig5}{{5}{9}}
\bibcite{hardin2005}{1}
\@writefile{toc}{\contentsline {section}{\numberline {6}Conclus\IeC {\~o}es}{10}}
