"1" 1.12905338581922
"2" 0.24403620890646
"3" 0.498737111499518
"4" 0.141147860581513
"5" 0.177370944524955
"6" 0.390175056056167
"7" 0.493677819380675
"8" 0.250883736688204
"9" 0.322972116060289
"10" 0.264361666184808
"11" 0.450187816486202
"12" 0.352024584424347
"13" 0.429460573018791
"14" 0.164639793158116
"15" 0.18110229166733
"16" 0.225467868531193
"17" 0.407736753525083
"18" 0.400689614497818
"19" 0.243904836480451
"20" 0.361342322566708
"21" 0.338369168349921
"22" 0.560120194174186
"23" 0.396027909107624
"24" 0.196238227179721
"25" 0.203024593098094
"26" 0.160589741783688
"27" 0.477559242966562
"28" 0.137659132531326
"29" 0.603160469770875
"30" 0.509199635376337
"31" 0.159514951030067
"32" 0.852636469656827
"33" 0.254375414115371
"34" 0.394383936491128
"35" 0.235885117486333
"36" 0.536883921745378
"37" 0.141610271370145
"38" 0.16310762346924
"39" 0.375047316039929
"40" 0.181939587344324
"41" 0.802944169774941
"42" 0.161306645187736
"43" 0.374932042783643
"44" 0.504617716709677
"45" 1.41549085018966
"46" 0.574722678670598
"47" 0.159065627784958
"48" 0.311981598608601
"49" 0.292556402106698
"50" 0.230831440603098
"51" 0.195351958244049
"52" 0.16994808707278
"53" 0.13226523494236
"54" 0.129721068909094
"55" 0.203797607990364
"56" 0.137146828435981
"57" 0.228817831622944
"58" 0.393389088963649
"59" 0.311866860801163
"60" 0.45177747905705
"61" 0.733700987157043
"62" 0.184132884823069
"63" 0.153659449334075
"64" 0.39554089121938
"65" 0.304059858722053
"66" 0.201617792927951
"67" 0.140416304696586
"68" 0.265701983916221
"69" 0.407933090301639
"70" 1.44767402178514
"71" 0.139332100537205
"72" 0.36477469296928
"73" 0.67941235092413
"74" 0.394353114047248
"75" 0.307823435526556
"76" 0.226405116187685
"77" 0.335759101118798
"78" 0.157941185733394
"79" 0.224615124338258
"80" 0.504513929673991
"81" 0.35365335547203
"82" 0.278349376849791
"83" 0.22565375784988
"84" 0.162757162589036
"85" 0.137532769227535
"86" 0.227703316506448
"87" 0.295564325459953
"88" 0.402441259380823
"89" 0.38530398455771
"90" 0.279158122439289
"91" 0.13783470405381
"92" 0.228845762154073
"93" 0.181948192151662
"94" 0.16408572231738
"95" 0.337585900131474
"96" 0.261566786789812
"97" 0.293858905805111
"98" 0.291231535682579
"99" 0.319922281344027
"100" 0.476016140464761
"101" 0.13823796103562
"102" 0.300899495539329
"103" 0.985142103606368
"104" 0.613267182716694
"105" 0.139366915218615
"106" 0.27059521239175
"107" 0.457410537235175
"108" 0.515239522750638
"109" 0.256288118797815
"110" 0.160202566786924
"111" 0.353287290915953
"112" 0.142688292802537
"113" 0.436548398105692
"114" 0.225071344310942
"115" 0.136825427660497
"116" 0.141826900926279
"117" 0.139553448149392
"118" 0.293199274528841
"119" 0.808248387370469
"120" 0.775993192352615
"121" 0.327331104585777
"122" 0.293468973542154
"123" 0.211191670707224
"124" 0.162149876191169
"125" 0.496581167808497
"126" 0.143666019481341
"127" 0.229932380929365
"128" 0.288100550071487
"129" 0.357476189027163
"130" 0.528620552361762
"131" 0.567594456925148
"132" 0.393485485005808
"133" 0.507622563221314
"134" 0.227902364239831
"135" 0.495701790652056
"136" 0.336986603572993
"137" 0.211908718359258
"138" 0.295148042832501
"139" 0.275640477485261
"140" 0.351753310610377
"141" 0.481643157344806
"142" 0.140788331114251
"143" 0.107754342437339
"144" 0.355068353004882
"145" 0.678576426159882
"146" 0.215361223246558
"147" 0.181664205584689
"148" 0.280031506205496
"149" 0.514322548306426
"150" 0.32053603372843
"151" 0.494350720757789
"152" 0.163485201462225
"153" 0.138106306017482
"154" 0.160543031908297
"155" 0.141659786697262
"156" 0.220565367241323
"157" 0.408330696567177
"158" 0.333818597611207
"159" 0.226140057995775
"160" 0.295034298454862
"161" 0.222180376659188
"162" 0.226483787201642
"163" 0.181507619069814
"164" 0.179603432360509
"165" 0.269205007069747
"166" 0.18037642332855
"167" 0.242271995241595
"168" 0.267969814282223
"169" 0.132951430417821
"170" 0.158600122288381
"171" 0.2101020607146
"172" 0.226096705154993
"173" 0.645806689581993
"174" 0.576802660162273
"175" 0.498257226834206
"176" 0.343090671143259
"177" 0.26913151366199
"178" 0.141723901486285
"179" 0.162549525456969
"180" 0.164472111959705
"181" 0.15883233773134
"182" 0.449728193297093
"183" 0.138832546564336
"184" 0.200900109049876
"185" 0.47502020935774
"186" 0.267119659683971
"187" 0.183326843333944
"188" 0.235755074439466
"189" 0.142578749590783
"190" 0.232558486717535
"191" 0.138146938824085
"192" 0.960780753748775
"193" 0.314635695030046
"194" 0.214100255522228
"195" 1.09915900412096
"196" 0.623162623797117
"197" 0.500076348579255
"198" 0.171027711844978
"199" 0.336317328800593
"200" 0.229166611494579
"201" 0.268493974594187
"202" 0.452423051847935
"203" 0.322718050378612
"204" 0.6864305463829
"205" 0.637357429858058
"206" 0.607767688396284
"207" 0.435412706493914
"208" 0.233875249320763
"209" 0.184245428247869
"210" 0.224369761161225
"211" 0.409392572711682
"212" 0.13725698586458
"213" 0.454501424880821
"214" 0.418698888809757
"215" 0.230050823888964
"216" 0.368908043983222
"217" 0.5121424772711
"218" 0.4081746010433
"219" 0.64646308369883
"220" 0.371345548587233
"221" 0.272146817870472
"222" 0.138829782588538
"223" 0.183376972877904
"224" 0.288851391997238
"225" 0.317503841910267
"226" 0.78619156973982
"227" 0.2714535722447
"228" 0.451652506380802
"229" 0.268811459438817
"230" 0.305138556707899
"231" 0.452158364079217
"232" 0.692695463186054
"233" 0.44804286101874
"234" 0.377687609622687
"235" 0.2631934290235
"236" 0.113047680270751
"237" 0.499098297429819
"238" 0.315200438443376
"239" 0.451679988258901
"240" 0.167850827083489
"241" 0.535692857193695
"242" 0.139124252317785
"243" 0.465913135775615
"244" 0.136338437214116
"245" 0.248560971011351
"246" 0.229903151985432
"247" 0.216483303774585
"248" 0.528394672018485
"249" 0.191686421731669
"250" 0.403270335478249
"251" 0.374771543236754
"252" 0.195907834892402
"253" 0.769961660176783
"254" 0.337493649486251
"255" 0.156294522701435
"256" 0.204286703204292
"257" 0.166963959911749
"258" 0.138215589368264
"259" 0.239170063163763
"260" 0.189351422990622
"261" 0.200861525576042
"262" 0.266983727224282
"263" 0.138029245427284
"264" 0.292602137637851
"265" 0.49411042688074
"266" 0.297448196189898
"267" 0.500316114367909
"268" 0.187867858376267
"269" 0.427878374049442
"270" 0.35886438444506
"271" 0.140338748008169
"272" 0.128205609166846
"273" 0.269370471816099
"274" 0.158764165433178
"275" 0.265309414634646
"276" 0.230145290183097
"277" 0.783876762539185
"278" 0.193706491922472
"279" 0.228339522197855
"280" 0.280445060123034
"281" 0.591845901796283
"282" 0.262376085448462
"283" 0.172434740480013
"284" 0.265294724326338
"285" 0.405711231739649
"286" 0.184863035465101
"287" 0.407059319593602
"288" 0.2101008226555
"289" 0.159694136982442
"290" 0.394625647572473
"291" 0.141244316249746
"292" 0.241391602592474
"293" 0.636003268304952
"294" 0.279566161120837
"295" 0.549986350323986
"296" 0.183981338628674
"297" 0.200322865930952
"298" 0.270090964469189
"299" 0.487345282333601
"300" 0.365027790121508
"301" 0.424735170299729
"302" 0.371443993976032
"303" 0.544966020031544
"304" 0.204478159913192
"305" 0.290698368368078
"306" 0.185164704021334
"307" 0.260948447830254
"308" 0.254997192677475
"309" 0.437244553014853
"310" 0.238705375487726
"311" 0.336582520475243
"312" 0.296937367137544
"313" 0.449722220872536
"314" 0.425176610103433
"315" 0.140415714103467
"316" 0.181105598988797
"317" 0.229951722363558
"318" 0.227530526811964
"319" 0.455200137182666
"320" 0.525406923264696
"321" 0.634866738928424
"322" 0.696973362763872
"323" 0.477963681966792
"324" 0.466658762766289
"325" 0.170666790424386
"326" 0.33556370871976
"327" 0.147885421611453
"328" 0.1822464831528
"329" 0.14059553789641
"330" 0.234522590572562
"331" 0.486414682094307
"332" 0.140247796667808
"333" 0.140195068514123
"334" 0.551731615489845
"335" 0.158786796961507
"336" 0.185122119452918
"337" 0.336283004463004
"338" 0.459632072660487
"339" 0.478829764277712
"340" 0.519439280189697
"341" 0.137689181909232
"342" 0.13786189496102
"343" 0.294810853328875
"344" 0.162669033074659
"345" 0.470138442657568
"346" 0.137317769708411
"347" 0.307175327460195
"348" 0.158797616627451
"349" 0.228938028333712
"350" 0.325682713916128
"351" 0.302160655747984
"352" 0.138235078941198
"353" 0.170854248307327
"354" 0.299871266194572
"355" 0.14754091583186
"356" 0.480456386069596
"357" 0.228101779331417
"358" 0.137866099984029
"359" 0.138654778035448
"360" 0.506058811755649
"361" 0.322675595961162
"362" 0.13773647660622
"363" 0.281393346870341
"364" 0.195589416159761
"365" 0.197991769823931
"366" 0.200675692262264
"367" 0.0796685841777762
"368" 0.140118173289999
"369" 0.443287651480699
"370" 0.464253155691225
"371" 0.137523744964674
"372" 0.224749565555861
"373" 0.139943286855533
"374" 0.159385379919904
"375" 0.519362681247807
"376" 0.143799952009212
"377" 0.61880112112046
"378" 0.261972329715935
"379" 0.565243758270724
"380" 0.24748775480717
"381" 0.137109337584773
"382" 0.175670775109499
"383" 0.137623862310245
"384" 0.415273058145328
"385" 0.931205316494888
"386" 0.524130678985385
"387" 0.182263563105808
"388" 0.513660280782187
"389" 0.13986426549618
"390" 0.281360640533405
"391" 0.183779042901954
"392" 0.137846728529718
"393" 0.337815504884028
"394" 0.230331473739222
"395" 0.340832603121402
"396" 0.276819177482209
"397" 0.338324628801265
"398" 0.335056691138714
"399" 0.505487861253024
"400" 0.191199480952695
"401" 0.235169656648855
"402" 0.292833862754112
"403" 0.592540979487916
"404" 0.45065835411163
"405" 0.33181610826702
"406" 0.22954531190478
"407" 0.186868406982798
"408" 0.304880777809742
"409" 0.34041484095242
"410" 0.138471079951642
"411" 0.342124755766623
"412" 0.548518792126878
"413" 0.580345868327501
"414" 0.414905341348309
"415" 0.210588387406759
"416" 0.427653244282435
"417" 0.435714516655683
"418" 0.983231310325921
"419" 0.205423605972129
"420" 0.227667668305772
"421" 0.26217041026953
"422" 0.291635052328394
"423" 0.163547875204038
"424" 0.447903780280619
"425" 0.257384026194161
"426" 0.218273145297498
"427" 0.142351205873806
"428" 0.946290038833114
"429" 0.225938500376045
"430" 0.250223784697414
"431" 0.830005995773189
"432" 0.359242526145507
"433" 0.163011338938602
"434" 0.160520595141289
"435" 0.212707910121224
"436" 0.287512774800788
"437" 0.208793208313293
"438" 0.270601570806926
"439" 0.520863226431347
"440" 0.181206716271774
"441" 0.407843957988085
"442" 0.138564866138976
"443" 0.323395188217047
"444" 0.442693659659186
"445" 0.333538759146949
"446" 0.462248847708504
"447" 0.433717536558668
"448" 0.137614908918558
"449" 0.347858165722454
"450" 0.295489269684589
"451" 0.160796254614098
"452" 0.269469521915987
"453" 0.82697787260715
"454" 0.142483900335834
"455" 0.159109975287871
"456" 0.288895206457657
"457" 0.159246656387864
"458" 0.231801424128001
"459" 0.158759180827252
"460" 0.200377895139822
"461" 0.399313715651504
"462" 0.966452543252155
"463" 0.492842298407521
"464" 0.242214545935132
"465" 0.137751926522219
"466" 0.606648896796793
"467" 0.348299029608023
"468" 0.196050443727632
"469" 0.45588081570767
"470" 0.138509492128117
"471" 0.137832507047407
"472" 0.590196525875359
"473" 0.186546527234261
"474" 0.354708150438893
"475" 0.586932031261312
"476" 0.160120878650957
"477" 0.159317917561102
"478" 0.274379831227885
"479" 0.513926643994014
"480" 0.236939303437755
"481" 0.26917146721648
"482" 0.22589389878368
"483" 0.472249248707396
"484" 0.460532766861842
"485" 0.142169019708386
"486" 0.141956878659959
"487" 0.535592959336769
"488" 0.232831066142743
"489" 1.0492690470344
"490" 0.139913426467425
"491" 0.372863206094154
"492" 1.12133608057606
"493" 0.274475271075952
"494" 0.653742126119276
"495" 0.14033865351327
"496" 0.818236300502673
"497" 0.225728178354425
"498" 0.199975411818763
"499" 0.145918873302971
"500" 0.619652641979669
"501" 0.152089230976268
"502" 0.335135838136685
"503" 0.687855896165121
"504" 0.488534780004802
"505" 0.141621870619007
"506" 0.193494049491536
"507" 0.197709756211439
"508" 0.138243040136446
"509" 0.206342767458231
"510" 0.222867261118493
"511" 0.577251112118844
"512" 0.162143929885546
"513" 0.225296885479776
"514" 0.13854343942061
"515" 0.137015716763512
"516" 0.18121587453602
"517" 0.140172625975592
"518" 0.214860519394795
"519" 0.494232763099121
"520" 0.269682537042231
"521" 0.654696147221858
"522" 0.724937532700688
"523" 0.14247159237523
"524" 0.431669534689663
"525" 0.218750374575523
"526" 0.267500902670748
"527" 0.567264408516545
"528" 0.310495835940414
"529" 0.225283225498397
"530" 0.335883071371612
"531" 0.364698560090788
"532" 0.140683465400001
"533" 0.208568047629053
"534" 0.141655912406399
"535" 0.436360748540567
"536" 0.183516825328538
"537" 0.249978419476994
"538" 0.29146205668049
"539" 0.40650201915236
"540" 0.37996189558936
"541" 0.250393764893758
"542" 0.469423541155292
"543" 0.204496842815786
"544" 0.594707905384859
"545" 0.246197447576836
"546" 0.796799686545098
"547" 0.338897576958002
"548" 0.302553650537969
"549" 0.547732777643254
"550" 0.288179232844179
"551" 0.123392562174521
"552" 0.161868423134269
"553" 0.137582615286798
"554" 0.875960588613816
"555" 0.231141606809742
"556" 0.163266380372605
"557" 0.553596785992246
"558" 0.311202285606811
"559" 0.473218284102154
"560" 0.308811790760193
"561" 0.225577388119223
"562" 0.346577814462792
"563" 0.242534599035564
"564" 0.387795481701226
"565" 0.412530440571969
"566" 0.86980346557233
"567" 0.166249983863242
"568" 0.442249472712707
"569" 0.169206174115541
"570" 0.576630602779707
"571" 0.180752755035645
"572" 0.219252206931116
"573" 0.224509460109471
"574" 0.256323691623812
"575" 0.198084835038503
"576" 0.209753970121991
"577" 0.203903372035783
"578" 0.461203795932238
"579" 0.645231782354347
"580" 0.293594215959533
"581" 0.182640102144907
"582" 0.361504525943905
"583" 1.18770804220123
"584" 0.340654515554283
"585" 0.142463087834313
"586" 0.336726616538242
"587" 0.215684200735138
"588" 0.269994488327808
"589" 0.183769569788321
"590" 0.727005040200674
"591" 0.141796615311125
"592" 0.138502617624209
"593" 0.160889101623963
"594" 0.307274544293365
"595" 0.446141841589505
"596" 0.161825800163264
"597" 0.160970721593041
"598" 0.167672177358061
"599" 0.186209723110223
"600" 0.164677472999123
"601" 0.987609607097683
"602" 0.159675881614717
"603" 0.361863275906807
"604" 0.548920452737012
"605" 0.337130245728126
"606" 0.224696790154727
"607" 0.544392762459114
"608" 0.190013941669732
"609" 0.230733034157874
"610" 0.433667048827203
"611" 0.225726382951342
"612" 0.186221393230259
"613" 0.162757431144783
"614" 0.204961317000464
"615" 0.10307695253365
"616" 0.141131064113203
"617" 0.285396263930158
"618" 0.271385494357408
"619" 1.29180220654679
"620" 0.34092128570177
"621" 1.13895311741543
"622" 0.749071219754697
"623" 0.17782428257792
"624" 0.895609020609941
"625" 0.420838248867432
"626" 0.204133183630337
"627" 0.569162226124305
"628" 0.435608494576206
"629" 0.205384523967681
"630" 0.136674590177845
"631" 1.0351455884363
"632" 0.195543679830263
"633" 0.188281048991644
"634" 0.258667630115981
"635" 0.202494941641766
"636" 0.376829310938597
"637" 0.739587259022692
"638" 0.185014544751694
"639" 0.196298262605305
"640" 0.532994532060006
"641" 0.159659386483306
"642" 0.140273448027704
"643" 0.229426141734893
"644" 0.146649454823683
"645" 0.0892627593064302
"646" 0.139424769720574
"647" 0.161333723747844
"648" 0.402698556017066
"649" 0.370024903087327
"650" 0.36039309327412
"651" 0.858853977897388
"652" 0.137563763554433
"653" 0.478426197449214
"654" 0.369290943538794
"655" 0.322252114898016
"656" 0.234555421107344
"657" 0.336529754268218
"658" 0.760034354879424
"659" 0.480326110871156
"660" 0.316104132805675
"661" 0.111084048647012
"662" 0.17125060419198
"663" 0.138047742803779
"664" 0.180460002761621
"665" 0.441709265374863
"666" 0.139078871142504
"667" 0.227811932621415
"668" 0.262389738951094
"669" 0.162090275699846
"670" 0.164320896497457
"671" 0.119458944657755
"672" 0.336973994975256
"673" 0.397657157530052
"674" 0.645059641884285
"675" 0.164860840350781
"676" 0.158453962303234
"677" 0.158726296602373
"678" 0.3591793152239
"679" 0.138690282279494
"680" 0.149893654796213
"681" 0.224780796120006
"682" 0.894796845527269
"683" 0.433333990402217
"684" 0.835600323336564
"685" 1.25187815613724
"686" 0.314250660358613
"687" 0.247272836418958
"688" 0.360399999631021
"689" 0.27342488940154
"690" 0.158610682093353
"691" 0.224422495086432
"692" 0.137872383894817
"693" 0.182305117237677
"694" 0.188527470218897
"695" 0.13792381274364
"696" 0.36500911362148
"697" 0.514715183940856
"698" 0.230226159174201
"699" 0.138246890803583
"700" 0.250707953373096
"701" 0.355572833511233
"702" 0.48226562847525
"703" 0.132634403586783
"704" 0.228861574720043
"705" 0.139960579422064
"706" 0.272065013308927
"707" 0.189559738689945
"708" 0.240815548045696
"709" 0.401745662482136
"710" 0.311613735065473
"711" 0.59748639226132
"712" 0.196241253811782
"713" 0.225661795687823
"714" 0.226769080503017
"715" 0.173470650824071
"716" 0.137964138441821
"717" 0.280430916965928
"718" 0.261739412971471
"719" 0.159449602035834
"720" 0.16114012732336
"721" 0.273581138657602
"722" 0.157865206063015
"723" 0.126340809611379
"724" 0.536698864193578
"725" 0.13721245514339
"726" 0.13905879097645
"727" 0.248261242113904
"728" 0.0896126377678055
"729" 0.137914292382558
"730" 0.807806632696074
"731" 0.445087409117707
"732" 0.181889245186841
"733" 0.225517974451428
"734" 0.292362474950068
"735" 0.228029507126539
"736" 0.142482648278422
"737" 0.140586797118245
"738" 0.159669196100607
"739" 0.227303579151391
"740" 0.311940173611227
"741" 0.323739398798762
"742" 0.161560458486656
"743" 0.38976916874071
"744" 0.49506532294586
"745" 0.158024459363206
"746" 0.224472586314015
"747" 0.326894983577506
"748" 0.607402846521433
"749" 0.138054499189063
"750" 0.393722087607006
"751" 0.407462999923416
"752" 1.07913493994819
"753" 0.338303069168017
"754" 0.296656546858839
"755" 0.748219218442744
"756" 0.159415217435614
"757" 0.437714601716778
"758" 0.247604693390174
"759" 0.269280227951601
"760" 0.14074141439686
"761" 0.371028511428984
"762" 0.162385540697945
"763" 0.456116510283604
"764" 0.161910808754046
"765" 0.308440181489455
"766" 0.632604574584566
"767" 0.185167060622289
"768" 0.188970405591472
"769" 0.158896393192233
"770" 0.256924171625168
"771" 0.22559302702502
"772" 0.318286797602294
"773" 0.464880093190294
"774" 0.197181028648131
"775" 0.224965510023976
"776" 0.453058605687716
"777" 0.228503966014803
"778" 0.272783080047011
"779" 0.283173630245939
"780" 0.299327832153802
"781" 0.249849357389482
"782" 0.600263886061948
"783" 0.364286957547841
"784" 0.178661550811103
"785" 0.201561779549143
"786" 0.214802354886603
"787" 0.442405729872184
"788" 0.219608857747036
"789" 0.245854633962886
"790" 0.181150200581161
"791" 0.296665087163058
"792" 0.300118442397302
"793" 0.227426606046705
"794" 0.339017946703257
"795" 0.137993998829929
"796" 0.226322574893342
"797" 0.313112470357227
"798" 0.160675962607574
"799" 0.50075105023969
"800" 0.432556861450754
"801" 0.458385216495592
"802" 0.231687709445571
"803" 0.13815251402313
"804" 0.229565261850059
"805" 0.203644833991909
"806" 0.286773361892129
"807" 0.233505097017627
"808" 0.219237100412247
"809" 0.137718711565194
"810" 0.375910350874166
"811" 0.263715103562629
"812" 0.141770109491934
"813" 0.307504626174523
"814" 0.690881623546913
"815" 0.617882314413817
"816" 0.184201232218749
"817" 0.204263704709687
"818" 0.353319096927891
"819" 0.182411264404587
"820" 0.303373386785037
"821" 0.140704301525247
"822" 0.221810097441257
"823" 0.138952035364218
"824" 0.366810802130143
"825" 0.794987441519524
"826" 0.415909772157936
"827" 0.479900575016384
"828" 0.184450293189067
"829" 0.248184868199805
"830" 0.465576116915858
"831" 0.368062729362079
"832" 0.137870777481533
"833" 0.388945836529493
"834" 0.581455283403168
"835" 0.471319397983594
"836" 1.17446323729178
"837" 0.283079601409956
"838" 1.02026706165309
"839" 0.156398616207243
"840" 0.508604839042783
"841" 0.263964361295508
"842" 0.234484452267682
"843" 1.90135435291055
"844" 0.198633324297705
"845" 0.159913199782226
"846" 0.2258177122713
"847" 0.181624541350802
"848" 0.312519372543552
"849" 0.149261330202082
"850" 0.442151216555123
"851" 0.225889008672653
"852" 0.185039327142462
"853" 0.560398103693256
"854" 0.388477124729656
"855" 0.760383199142667
"856" 0.2554613688568
"857" 0.628381940287198
"858" 0.490525009091953
"859" 0.218077797394897
"860" 0.15939008179246
"861" 0.308859684894753
"862" 0.227316659767375
"863" 0.197768340981884
"864" 0.243379360839176
"865" 0.467755264854629
"866" 0.24400428849977
"867" 0.265848091988747
"868" 0.760370459611349
"869" 0.206046954378616
"870" 0.18028963553527
"871" 0.138798906380264
"872" 0.51893061739107
"873" 0.409891929054187
"874" 0.331948554396377
"875" 0.339671095445675
"876" 0.688027460055467
"877" 0.200808040136052
"878" 0.224666026293556
"879" 0.142696797343454
"880" 0.250814775558036
"881" 0.149096300610439
"882" 0.224336433857098
"883" 0.248040289838489
"884" 0.1807061690504
"885" 0.162307464287583
"886" 0.224091931695299
"887" 0.197150735789501
"888" 0.225442331284718
"889" 0.549328076159056
"890" 0.438281370353636
"891" 0.443257413604995
"892" 0.52761892817012
"893" 0.142533533781574
"894" 0.347402911605679
"895" 0.138585347908351
"896" 0.355695583921607
"897" 0.21274142655109
"898" 0.136997173544559
"899" 0.366909541308324
"900" 0.30892493905033
"901" 0.43052177648492
"902" 0.446426337984583
"903" 0.183081014853996
"904" 0.139480639829653
"905" 0.209246484246568
"906" 0.171423038128429
"907" 0.391780522467273
"908" 0.708484321291691
"909" 0.953080343506199
"910" 0.240978680940239
"911" 0.595834289983316
"912" 0.30805591437963
"913" 0.141810482437564
"914" 0.140099935774477
"915" 0.418660930038089
"916" 0.175102168333982
"917" 0.835105602291318
"918" 0.163873085170733
"919" 0.156063883634316
"920" 0.272523818847435
"921" 0.792049104845999
"922" 0.219663201717254
"923" 0.162778881486874
"924" 0.151422359748451
"925" 0.226470790142544
"926" 0.183597145992753
"927" 0.348671633533751
"928" 0.176108292878956
"929" 0.181322724643151
"930" 0.292326685007042
"931" 0.36212685895225
"932" 0.265238287337666
"933" 0.274935200567713
"934" 0.759546603095959
"935" 0.228956832818628
"936" 0.187139581124091
"937" 0.225600533597975
"938" 0.141811262020482
"939" 0.513903233527594
"940" 0.17952625393052
"941" 0.2985114596587
"942" 0.358042558964753
"943" 0.573747632379564
"944" 0.6714441729378
"945" 0.22863273893852
"946" 0.282033946112958
"947" 0.38257408482293
"948" 0.236011904721804
"949" 0.484964589061658
"950" 0.181890172244245
"951" 0.471303274600406
"952" 0.160774857290979
"953" 0.415395276855367
"954" 0.227604138338345
"955" 0.269517130649225
"956" 0.137123062968864
"957" 0.182782700229133
"958" 0.229214300755356
"959" 0.137587387279202
"960" 0.173431847615051
"961" 0.160985622391848
"962" 0.136983139647056
"963" 0.479377953943809
"964" 0.126137135759282
"965" 0.241263504863225
"966" 0.567417907214178
"967" 0.140430030080677
"968" 0.340625518446448
"969" 0.137575882525239
"970" 0.138565929206591
"971" 0.227540731596453
"972" 0.224566363570276
"973" 0.383431012764846
"974" 0.235165051690668
"975" 0.518970422888359
"976" 0.225648836787347
"977" 0.138862477823618
"978" 0.783007632437655
"979" 0.15745130306729
"980" 0.22865606474549
"981" 0.271014297466932
"982" 0.485415105334237
"983" 0.950991495950768
"984" 0.195606843292753
"985" 0.209244246940501
"986" 0.13991647392792
"987" 0.437335405186762
"988" 0.562051343779427
"989" 0.563496743664216
"990" 0.227859676169173
"991" 0.14243315657503
"992" 0.347390846300381
"993" 0.403562517216321
"994" 0.692826751195132
"995" 0.41950255376949
"996" 0.338594916663815
"997" 0.294772709093368
"998" 0.206962223602704
"999" 0.342361843468407
"1000" 0.140492302219169
"1001" 0.495866984643582
"1002" 0.305088572052523
"1003" 0.221266847978237
"1004" 0.181244860846312
"1005" 0.430159973430072
"1006" 0.137694804355727
"1007" 0.230265020201447
"1008" 0.244422855541133
"1009" 0.347640770321484
"1010" 0.427834096094224
"1011" 0.195973951419731
"1012" 0.226230032598227
"1013" 0.634921134874732
"1014" 0.292642675949555
"1015" 0.133413870640313
"1016" 0.404552529515648
"1017" 0.388089152749082
"1018" 0.271940658021742
"1019" 0.464601162402681
"1020" 0.274187185523914
"1021" 0.13873235834759
"1022" 0.587392794853625
"1023" 0.141605357635393
"1024" 0.484407953993898
"1025" 0.203310895298614
"1026" 0.281876635661784
"1027" 0.454105523868854
"1028" 0.352986779109374
"1029" 0.180528306026613
"1030" 0.185241392370368
"1031" 0.252993048687529
"1032" 0.276614410970934
"1033" 0.225854935656496
"1034" 0.331917041877618
"1035" 0.225981613673748
"1036" 0.227235018961678
"1037" 0.277490475501589
"1038" 0.184288302853269
"1039" 0.575630151108638
"1040" 0.507027591616476
"1041" 0.262039555088516
"1042" 0.139510878197358
"1043" 0.184241559632571
"1044" 0.387630086044137
"1045" 0.775462820868911
"1046" 0.423696181821146
"1047" 0.337439415185703
"1048" 0.14186613993312
"1049" 0.269173823753051
"1050" 0.137612900901952
"1051" 0.262782393962282
"1052" 0.138263899885417
"1053" 0.434645267958157
"1054" 0.162458331165481
"1055" 0.241068319616543
"1056" 0.180551976998832
"1057" 0.162256980387751
"1058" 0.366557667020615
"1059" 0.239404788868444
"1060" 0.229806511462965
"1061" 0.139694316420191
"1062" 0.142421462831269
"1063" 0.324511350941039
"1064" 0.413879790362928
"1065" 0.157009838236572
"1066" 0.138576819743709
"1067" 0.400029958929315
"1068" 0.341854287793847
"1069" 0.161607782578891
"1070" 0.303327210107863
"1071" 0.141317266311833
"1072" 0.246731375070969
"1073" 0.836560355017735
"1074" 0.29912977715009
"1075" 0.225982936602335
"1076" 0.492066664968503
"1077" 0.179304236596106
"1078" 0.334348103438999
"1079" 0.631008584573499
"1080" 0.753008871894436
"1081" 0.296673465526459
"1082" 0.285601096799211
"1083" 0.229197548816266
"1084" 0.992365454112154
"1085" 0.139603908536604
"1086" 0.449210758648289
"1087" 0.174994022620272
"1088" 0.137075815519325
"1089" 0.266341567258966
"1090" 0.481890122821856
"1091" 0.238540899004457
"1092" 0.348902546687933
"1093" 0.318863952719084
"1094" 0.228373704796426
"1095" 0.247617574090805
"1096" 0.429152007369472
"1097" 0.277149812523024
"1098" 0.405315953093289
"1099" 0.269164768674726
"1100" 0.245248925943976
"1101" 0.273120143352018
"1102" 0.271380492260016
"1103" 0.136505435637444
"1104" 0.502664097886212
"1105" 0.534089632371235
"1106" 0.137466717293081
"1107" 0.203362837589339
"1108" 0.22685102049135
"1109" 0.294262578380702
"1110" 0.228837178652673
"1111" 0.137265017931002
"1112" 0.202089263242949
"1113" 0.261012887261136
"1114" 0.281549624615687
"1115" 0.139308068520214
"1116" 0.538565203656523
"1117" 0.533621044582685
"1118" 0.297201846362388
"1119" 0.861497886674205
"1120" 0.349933242967544
"1121" 0.14004189228272
"1122" 0.183187816542186
"1123" 0.137601656008962
"1124" 0.330764288403466
"1125" 0.325860245406201
"1126" 0.283581214030747
"1127" 0.828773464882447
"1128" 0.363365346972039
"1129" 0.485483797760018
"1130" 0.182365233845693
"1131" 0.309647591913606
"1132" 0.604791029659705
"1133" 0.502932066399618
"1134" 0.414248753753621
"1135" 0.528052310105753
"1136" 0.160150263860285
"1137" 0.13829730383224
"1138" 0.463392148678891
"1139" 0.274951215231471
"1140" 0.492319900014587
"1141" 0.140445716233924
"1142" 0.331020603330052
"1143" 0.226727136951536
"1144" 0.225124261454425
"1145" 0.408304138241718
"1146" 0.310955941570914
"1147" 0.231421313713999
"1148" 0.23746979155698
"1149" 0.62993204766007
"1150" 0.156989786570724
"1151" 0.272883959123298
"1152" 0.141281688982331
"1153" 1.39153479354128
"1154" 0.814161999797667
"1155" 0.32182170743261
"1156" 0.164783521664132
"1157" 0.197925345332778
"1158" 0.510668317946093
"1159" 0.225719721060957
"1160" 0.345106360784292
"1161" 0.137767801665264
"1162" 0.198114633360889
"1163" 0.325483478088439
"1164" 0.268682946376072
"1165" 0.975420064056402
"1166" 0.181230025147157
"1167" 0.144396006487438
"1168" 1.13417008641323
"1169" 0.14083805905489
"1170" 0.398722654129732
"1171" 0.140959343257855
"1172" 0.306765277191998
"1173" 0.315736205300205
"1174" 0.193619782409915
"1175" 0.140465820023702
"1176" 0.258393798840963
"1177" 1.01421363501228
"1178" 0.861391110357605
"1179" 0.373189211297049
"1180" 0.46246853383059
"1181" 0.44942680758801
"1182" 0.689514819779474
"1183" 0.29471005897528
"1184" 0.163830704208497
"1185" 0.185633989339419
"1186" 0.139467079811636
"1187" 0.228409834946784
"1188" 0.423899736476374
"1189" 0.539632795829369
"1190" 0.207303180508182
"1191" 0.551496667714389
"1192" 0.446546640002206
"1193" 0.140275601791861
"1194" 0.563105420849197
"1195" 0.141143348450083
"1196" 0.47725181008305
"1197" 0.343481468924268
"1198" 0.33244084946157
"1199" 1.37740511505182
"1200" 0.1620111340556
"1201" 0.813139225463689
"1202" 0.183190865174173
"1203" 1.00321615757782
"1204" 0.163647118471793
"1205" 0.135037947038617
"1206" 0.491452495326328
"1207" 0.517597931995606
"1208" 0.225276894340159
"1209" 0.466281087799604
"1210" 0.215067941193324
"1211" 0.427980974399938
"1212" 0.671832511900912
"1213" 0.137087320273288
"1214" 0.233951040336401
"1215" 0.227453117212029
"1216" 0.337498752210801
"1217" 0.228711996535121
"1218" 0.25115306169427
"1219" 0.510553370978473
"1220" 0.258702596387853
"1221" 0.162916844039526
"1222" 0.59177333514761
"1223" 0.406319708018528
"1224" 0.255617546780382
"1225" 0.160152112282339
"1226" 0.224470569366337
"1227" 0.54946795873758
"1228" 0.566239107723442
"1229" 0.252235528569025
"1230" 0.415421917275855
"1231" 0.139579812226234
"1232" 0.175977851013823
"1233" 0.275603977500259
"1234" 0.320391156553742
"1235" 1.1016463820055
"1236" 0.227276430028347
"1237" 0.206514260144385
"1238" 0.244665059390552
"1239" 0.246235257367918
"1240" 0.590651380618938
"1241" 0.1402357721919
"1242" 0.369622029995749
"1243" 0.13903426955014
"1244" 0.27528441102144
"1245" 0.884313980447309
"1246" 0.249735245265826
"1247" 0.287297845906598
"1248" 0.334968268075692
"1249" 0.340977445949483
"1250" 0.550403324912999
"1251" 0.137292421451734
"1252" 0.583523353846743
"1253" 0.261946795000596
"1254" 0.99057091488004
"1255" 0.217301188340167
"1256" 0.370903628003748
"1257" 0.587364866652119
"1258" 0.644594233999851
"1259" 0.140930120710316
"1260" 0.420168359584986
"1261" 0.155764035309386
"1262" 0.556921856642632
"1263" 0.14373224823425
"1264" 0.185176533735921
"1265" 0.135455088890728
"1266" 0.606624174896536
"1267" 0.224251553814002
"1268" 0.183713705450764
"1269" 0.366919667211721
"1270" 0.141552639006632
"1271" 0.283777312044237
"1272" 0.809420128519923
"1273" 0.472168011938018
"1274" 0.433562956433964
"1275" 0.297883991801548
"1276" 0.295033003736258
"1277" 0.227374837096296
"1278" 0.227535794296878
"1279" 0.129332056574369
"1280" 0.527001843886906
"1281" 0.283240934026642
"1282" 0.127848270224751
"1283" 0.503063377595611
"1284" 0.29216579355412
"1285" 0.494749785496067
"1286" 0.550579385946487
"1287" 0.310774752001783
"1288" 0.278502212828417
"1289" 0.399672604414471
"1290" 0.244550278007132
"1291" 0.416509388681839
"1292" 0.365108639547158
"1293" 0.13779017333262
"1294" 0.249706444577583
"1295" 0.40356279571424
"1296" 0.280376455711304
"1297" 0.140004921153456
"1298" 0.226318228127984
"1299" 0.138324612858074
"1300" 0.140931065659307
"1301" 0.221397065858595
"1302" 0.226284139093143
"1303" 0.249121401922436
"1304" 0.258342073777016
"1305" 0.406642083823132
"1306" 0.954700911323884
"1307" 0.336901898804507
"1308" 0.491677692996884
"1309" 0.513408752375992
"1310" 0.244166124472901
"1311" 0.230080259050027
"1312" 0.183921216249137
"1313" 0.723034668981419
"1314" 0.163495076179179
"1315" 0.16178273411301
"1316" 0.386599666504251
"1317" 0.17582719090962
"1318" 0.140699222424422
"1319" 0.137363198131142
"1320" 0.401412458387056
"1321" 1.24897966977202
"1322" 0.305845643872638
"1323" 0.534315077676152
"1324" 0.185630180122664
"1325" 0.157676647263429
"1326" 0.141140111999789
"1327" 0.142450236528038
"1328" 0.19269410016427
"1329" 0.407406993467052
"1330" 0.230884909501829
"1331" 0.138810670995199
"1332" 0.142264246942931
"1333" 0.140758777834565
"1334" 0.161729344495031
"1335" 0.887702579958507
"1336" 0.442512609814758
"1337" 0.445625677088499
"1338" 0.483532494988097
"1339" 0.309527096238787
"1340" 0.2159268152704
"1341" 0.158775599315966
"1342" 0.184076760624539
"1343" 0.201758740087936
"1344" 0.142114141795747
"1345" 0.51823499080307
"1346" 0.142588978663608
"1347" 0.661425228895253
"1348" 0.286147887247036
"1349" 0.367046575225537
"1350" 0.245426319006996
"1351" 0.507760280800855
"1352" 0.184437158398096
"1353" 0.553860323319296
"1354" 0.123446036758469
"1355" 0.451138653632039
"1356" 0.223382990772965
"1357" 0.522082844591402
"1358" 0.485961876571805
"1359" 0.300189035935121
"1360" 0.768041233840937
"1361" 0.280751282075697
"1362" 0.165486305250881
"1363" 0.293342571155364
"1364" 0.160387097472618
"1365" 0.574060011802087
"1366" 0.326474199960453
"1367" 0.355513341215511
"1368" 0.52112595706386
"1369" 0.437622753752785
"1370" 0.350635481004841
"1371" 0.176713816416707
"1372" 0.227231733941084
"1373" 0.27001006269093
"1374" 0.28728039922295
"1375" 0.132270597157488
"1376" 0.201132558106826
"1377" 0.147435968116174
"1378" 0.228932807490538
"1379" 0.267072317229048
"1380" 0.141895078995963
"1381" 0.381151161185534
"1382" 0.31039121613162
"1383" 0.189341967995332
"1384" 0.14189685077532
"1385" 0.261173739148886
"1386" 0.381273931731255
"1387" 0.212601040390134
"1388" 0.41382236990094
"1389" 0.243623858312841
"1390" 0.30563620192474
"1391" 0.173044809828377
"1392" 0.141910316298439
"1393" 0.214728148905757
"1394" 0.338335982234042
"1395" 0.174213818901049
"1396" 0.138203092417861
"1397" 0.18579198478513
"1398" 0.273496690742792
"1399" 0.185732045623869
"1400" 0.138300398540185
"1401" 0.14015597124963
"1402" 0.441584900914926
"1403" 0.221767753040934
"1404" 0.140645407579398
"1405" 0.336900008906526
"1406" 0.627249173514253
"1407" 0.205160505077906
"1408" 0.325624598318991
"1409" 0.360288548942547
"1410" 0.13730557986643
"1411" 0.225056390493163
"1412" 0.284487676777322
"1413" 0.333314288277824
"1414" 0.351104917918494
"1415" 0.141919036489075
"1416" 0.164253379892067
"1417" 0.405151089601647
"1418" 0.55944392845299
"1419" 0.137619657287236
"1420" 0.229721556413132
"1421" 0.156475445725389
"1422" 0.272810058340698
"1423" 0.14088670030419
"1424" 0.360798010128725
"1425" 0.515170365605828
"1426" 0.215741303916863
"1427" 0.52834193116267
"1428" 1.23577941971326
"1429" 0.227850935391009
"1430" 0.163882382095563
"1431" 0.81375062287104
"1432" 0.25515453186009
"1433" 0.458107087390846
"1434" 0.138222133140025
"1435" 0.21457443495756
"1436" 0.19385000282273
"1437" 0.239374693935435
"1438" 0.604692373431864
"1439" 0.160704742075864
"1440" 0.15238128639935
"1441" 0.294711779077457
"1442" 0.164144758005578
"1443" 0.404818941926256
"1444" 0.158926782661975
"1445" 0.369632728145399
"1446" 0.324024016128815
"1447" 0.451185824118231
"1448" 0.407540393124801
"1449" 0.180502343553091
"1450" 0.55529529517764
"1451" 0.137868604098854
"1452" 0.138519295973896
"1453" 0.142597813936671
"1454" 0.272058398665992
"1455" 0.35971761421378
"1456" 0.207390659038759
"1457" 0.214579193456192
"1458" 0.871148084046847
"1459" 0.297733358171587
"1460" 0.364546883527325
"1461" 0.33875214379199
"1462" 0.225811357489337
"1463" 0.160049296060622
"1464" 0.154465080611807
"1465" 0.157362291515445
"1466" 0.265847464328399
"1467" 0.158331990558499
"1468" 0.359687830243068
"1469" 0.856784439651283
"1470" 0.985121264399742
"1471" 0.190364305550244
"1472" 0.479493527203293
"1473" 0.510677867840459
"1474" 0.229287824826369
"1475" 0.183826376277216
"1476" 1.02444574846471
"1477" 0.260003990329285
"1478" 0.346432404554567
"1479" 0.159619940634464
"1480" 0.384296404450586
"1481" 0.183347700440632
"1482" 0.140668818690644
"1483" 1.0109478744028
"1484" 0.458085307578683
"1485" 0.418537896176085
"1486" 0.157128854561959
"1487" 0.106426544354926
"1488" 0.138802615305053
"1489" 0.453501931412347
"1490" 0.490546017824174
"1491" 0.782280238701936
"1492" 0.345660798582033
"1493" 0.0855904414130121
"1494" 0.412582166914902
"1495" 0.269743477343956
"1496" 0.202353871871912
"1497" 0.34455790883306
"1498" 0.265184830575666
"1499" 0.178733314368497
"1500" 0.296500660669225
"1501" 0.254563433489872
"1502" 0.296251223572526
"1503" 0.406657794166969
"1504" 0.190886492059721
"1505" 0.380757969318244
"1506" 0.275411303070391
"1507" 0.267008056617601
"1508" 0.274004710102275
"1509" 0.456242284546278
"1510" 0.155996208795435
"1511" 0.140217109449333
"1512" 0.185259996355531
"1513" 0.433888879601239
"1514" 0.42576129292729
"1515" 0.201965903494681
"1516" 0.293923885038686
"1517" 0.339445606992754
"1518" 0.140404563705376
"1519" 0.492373594241192
"1520" 0.725614552820648
"1521" 0.320619809569675
"1522" 0.480323534988949
"1523" 0.220297811121897
"1524" 0.159332788488372
"1525" 0.225079045645217
"1526" 0.458788183043109
"1527" 0.257362704494101
"1528" 0.290234199953371
"1529" 0.336634800012455
"1530" 0.437310665568477
"1531" 0.139799985341083
"1532" 0.252424359756359
"1533" 0.284372711233935
"1534" 0.207581962126636
"1535" 0.292274501657868
"1536" 0.258279235305224
"1537" 0.270275988632157
"1538" 0.224646117265097
"1539" 0.225027947528541
"1540" 0.163811356377911
"1541" 0.180734919123444
"1542" 0.227226489474185
"1543" 0.352761327814397
"1544" 0.255009680177364
"1545" 0.492923535152939
"1546" 0.184184366690863
"1547" 1.19371363762645
"1548" 0.181494144161598
"1549" 0.140124774049601
"1550" 0.675466275206561
"1551" 0.498548585707204
"1552" 0.538066362964187
"1553" 0.139746642970554
"1554" 0.273235290624579
"1555" 1.1152093751318
"1556" 0.503043688074276
"1557" 0.210864240083153
"1558" 0.392449840814682
"1559" 0.181519557517928
"1560" 0.468141244001071
"1561" 0.246378683389772
"1562" 0.141115212593882
"1563" 0.77014833097559
"1564" 0.126805961896864
"1565" 0.577264834976966
"1566" 0.164798686330914
"1567" 0.235437904812913
"1568" 0.445906185382336
"1569" 0.288813237480959
"1570" 0.311196241352622
"1571" 0.255461468006977
"1572" 0.328716837726567
"1573" 0.944321196520607
"1574" 0.159917552319106
"1575" 0.644344171694656
"1576" 0.147471841786972
"1577" 0.138093407463758
"1578" 0.202253295258976
"1579" 0.709426563158821
"1580" 0.25636856030033
"1581" 0.142278090445645
"1582" 0.263556753848865
"1583" 0.376913766174127
"1584" 1.10580235039452
"1585" 0.437800988701205
"1586" 0.139663534706816
"1587" 0.161471733547945
"1588" 0.184233275613222
"1589" 0.441625638667128
"1590" 0.140325022624078
"1591" 0.214878347385812
"1592" 0.872836136115535
"1593" 0.357523474008075
"1594" 0.340350159414165
"1595" 0.528842527650199
"1596" 0.151885055895174
"1597" 0.157058970313562
"1598" 0.226845943281063
"1599" 0.26868015877655
"1600" 0.140264900244541
"1601" 0.227829957523414
"1602" 0.515999131374298
"1603" 0.210166682635476
"1604" 0.511270852837114
"1605" 0.240820053296915
"1606" 0.139265994666401
"1607" 0.225827350751006
"1608" 0.655381324063856
"1609" 0.319196340478303
"1610" 0.162406382594713
"1611" 0.398673724159714
"1612" 0.164180949551924
"1613" 0.500172814609782
"1614" 0.227067549053938
"1615" 0.111520189669943
"1616" 0.354512275481741
"1617" 0.185623556820277
"1618" 0.229934004569981
"1619" 0.563351004614397
"1620" 0.23002618434403
"1621" 0.685291991453554
"1622" 0.248283063015335
"1623" 0.25540898654052
"1624" 0.714795480644977
"1625" 0.256821423169368
"1626" 0.453878885297818
"1627" 0.22584485593106
"1628" 0.227534247195594
"1629" 0.807145495736198
"1630" 0.1385214929803
"1631" 0.288829376779221
"1632" 0.327864747471904
"1633" 0.314485180865755
"1634" 0.363086926673167
"1635" 0.164540313653113
"1636" 0.138051239115045
"1637" 0.812835126293608
"1638" 1.40669381758815
"1639" 0.132303722410847
"1640" 0.322790427666805
"1641" 0.341235104144019
"1642" 0.183065305077025
"1643" 0.528300306176177
"1644" 0.137395161030755
"1645" 0.296435653951045
"1646" 0.211794423003102
"1647" 0.246283011456909
"1648" 0.13968618985887
"1649" 0.262780392552708
"1650" 0.161554623426638
"1651" 0.770107868164187
"1652" 0.138890188452772
"1653" 0.225991192707098
"1654" 0.257988282614252
"1655" 0.554976246579261
"1656" 0.215475184234224
"1657" 0.20292010536344
"1658" 0.137754764757994
"1659" 0.285857232578613
"1660" 0.613749255729264
"1661" 0.488774002173169
"1662" 0.194239374825501
"1663" 0.159243663092661
"1664" 0.404645783900356
"1665" 0.291040680301782
"1666" 0.138800890773145
"1667" 0.261541785225782
"1668" 0.184347222877899
"1669" 0.136963342965699
"1670" 0.291360829019854
"1671" 0.214845103054136
"1672" 0.137921001520392
"1673" 0.368098200237348
"1674" 0.349801191542095
"1675" 0.285768761241575
"1676" 0.281522586852575
"1677" 0.138373655710694
"1678" 0.125628464970248
"1679" 0.158460151719124
"1680" 0.329955110438067
"1681" 0.227003974849266
"1682" 0.225285942226746
"1683" 0.419541634775102
"1684" 0.140674488384589
"1685" 0.609496409891066
"1686" 0.141793213494758
"1687" 0.233092384224455
"1688" 0.206265155654131
"1689" 0.230295494806399
"1690" 0.279940403593884
"1691" 0.170400159966754
"1692" 0.313851055582087
"1693" 0.138252654992427
"1694" 0.138035836446495
"1695" 0.271957903340824
"1696" 0.359329637103693
"1697" 0.283966427041456
"1698" 0.205819350609462
"1699" 0.148225030799832
"1700" 0.291144001570136
"1701" 0.142614870265955
"1702" 0.0930970631423299
"1703" 0.505441046116577
"1704" 0.548275132511849
"1705" 0.421280174384334
"1706" 0.137210777858931
"1707" 0.264491393314619
"1708" 0.487918258680323
"1709" 0.262400264150491
"1710" 0.160922145443393
"1711" 0.364306153171784
"1712" 0.386188955842065
"1713" 0.169056967013574
"1714" 0.138925458673853
"1715" 0.206485299661522
"1716" 0.162424690981409
"1717" 0.162738106937922
"1718" 0.159295793735384
"1719" 0.530541638272096
"1720" 0.633364080135431
"1721" 0.456783785710094
"1722" 0.687819445023975
"1723" 0.532011349976631
"1724" 0.159950265406389
"1725" 0.227921452209445
"1726" 0.163963044314654
"1727" 0.270096937177723
"1728" 0.157997528316969
"1729" 0.19632380666266
"1730" 0.133767850312006
"1731" 0.364031720671978
"1732" 0.305956446790839
"1733" 0.163972021330066
"1734" 0.189162117839798
"1735" 0.26718786952051
"1736" 0.171814444678066
"1737" 0.514969973316387
"1738" 0.148064854771246
"1739" 0.137826908224636
"1740" 0.333211427086748
"1741" 0.403851123275048
"1742" 0.233380447441753
"1743" -1.42760390203927
"1744" 0.517984539748302
"1745" 0.164164153083614
"1746" 0.227776567905435
"1747" 0.176916343534565
"1748" 0.137786795139978
"1749" 0.301027793859143
"1750" 0.503258261411746
"1751" 0.239852300864034
"1752" 0.291640949382842
"1753" 0.455875621384715
"1754" 0.278378646043776
"1755" 0.193357328337018
"1756" 0.280932274741878
"1757" 0.119741833855718
"1758" 0.228236959545067
"1759" 0.263543758342839
"1760" 0.298136463269309
"1761" 0.263925130856856
"1762" 0.826669867082015
"1763" 0.162024221599122
"1764" 0.228459580099678
"1765" 0.553210952006372
"1766" 0.318583137737644
"1767" 0.138206092630907
"1768" 0.16082239811816
"1769" 0.129199848858133
"1770" 0.548286824162824
"1771" 0.377435032440908
"1772" 0.662406480425947
"1773" 0.225543747935152
"1774" 0.159518470965058
"1775" 0.520965874089374
"1776" 0.536383388133776
"1777" 0.194271073264626
"1778" 0.150650104346872
"1779" 0.236959367484583
"1780" 1.26200019575474
"1781" 0.229056524937154
"1782" 0.26882503375593
"1783" 0.374405978504689
"1784" 0.225928980014963
"1785" 0.188921291573775
"1786" 0.313019254991428
"1787" 0.140420273482347
"1788" 0.316061828021841
"1789" 0.539223814271029
"1790" 0.1858877613319
"1791" 1.20139026619066
"1792" 0.237820263096105
"1793" 0.137257009488305
"1794" 0.142001433004873
"1795" 0.383701995001734
"1796" 0.263235475955503
"1797" 0.249604266354669
"1798" 0.138446865633754
"1799" 0.799973305381573
"1800" 0.185537173518248
"1801" 0.824768042149555
"1802" 0.358626051947136
"1803" 0.408596899759384
"1804" 1.92980473197082
"1805" 0.301349935706142
"1806" 0.273747354970088
"1807" 0.212774074403609
"1808" 0.385318895726145
"1809" 0.326970755024889
"1810" 0.300561190486158
"1811" 0.29454273213274
"1812" 0.0979296286721274
"1813" 0.656627888697518
"1814" 0.139480072860259
"1815" 0.47158044015323
"1816" 0.43326464443971
"1817" 0.185147253647454
"1818" 0.14074854876174
"1819" 0.486111311854931
"1820" 0.142472820808918
"1821" 0.187583560712359
"1822" 0.789879803014596
"1823" 0.13435913508686
"1824" 0.514401505654427
"1825" 0.271309857322956
"1826" 0.207025199544607
"1827" 0.15375068676692
"1828" 0.824985218435816
"1829" 0.567725122712057
"1830" 0.761268854568087
"1831" 0.302184558839815
"1832" 0.179834179820164
"1833" 0.225730422608278
"1834" 0.209183914843397
"1835" 0.507884314995985
"1836" 0.14160573561499
"1837" 0.377265125353529
"1838" 0.136978225912304
"1839" 0.247542271362349
"1840" 0.371618525098189
"1841" 0.292340157811581
"1842" 0.139798189938001
"1843" 0.256473728123773
"1844" 0.226437805651244
"1845" 0.395257241179854
"1846" 0.664580112004185
"1847" 0.210220038425191
"1848" 0.17963286659144
"1849" 0.731134568588431
"1850" 0.225832689712803
"1851" 0.204041877934104
"1852" 0.55993330419452
"1853" 0.137319258003072
"1854" 0.209800173845668
"1855" 0.0828273618360285
"1856" 0.362652340622305
"1857" 0.491251043809763
"1858" 0.185105709809063
"1859" 0.341279963340474
"1860" 0.40209949239613
"1861" 0.341760666920481
"1862" 0.164921151720117
"1863" 0.153410911306386
"1864" 0.27164288148066
"1865" 0.456112415337255
"1866" 0.365647082791269
"1867" 0.17719450084138
"1868" 0.137234425207425
"1869" 0.277488581367273
"1870" 0.164904756855127
"1871" 0.346420642297917
"1872" 0.190160852391821
"1873" 0.1842444900158
"1874" 0.234210228155234
"1875" 0.426012386660352
"1876" 0.219318509127925
"1877" 0.139670763566596
"1878" 0.24580816558295
"1879" 0.136828947595487
"1880" 0.304484094709597
"1881" 0.220003285593896
"1882" 0.26917934715539
"1883" 0.31195122216988
"1884" 0.430460772761653
"1885" 0.212325624142623
"1886" 0.272235742550159
"1887" 0.311609192705626
"1888" 0.226337475692149
"1889" 0.13718129545042
"1890" 0.326837262489714
"1891" 0.463846806129347
"1892" 0.289572405822081
"1893" 0.339453180171507
"1894" 0.197364437491279
"1895" 0.524959109427445
"1896" 0.181672279360307
"1897" 0.206394375694069
"1898" 0.330007011437633
"1899" 1.0364774158992
"1900" 0.186004856781197
"1901" 0.137961965059142
"1902" 0.265217277100056
"1903" 0.357368617299435
"1904" 0.221880846138228
"1905" 0.138787472497476
"1906" 0.484383197340242
"1907" 0.371817887609088
"1908" 0.437513762417454
"1909" 0.144376298240584
"1910" 0.237556994806563
"1911" 0.307341633683755
"1912" 0.165101871301554
"1913" 0.339902749690762
"1914" 0.275457293551194
"1915" 0.632690817808249
"1916" 0.293998935815561
"1917" 0.273561018122345
"1918" 0.387885614861885
"1919" 0.281287408183488
"1920" 0.148711374565855
"1921" 0.141653762647445
"1922" 0.206476979652104
"1923" 0.138669377497355
"1924" 0.343921596179157
"1925" 0.237206958601376
"1926" 0.168256089512862
"1927" 0.380599283871876
"1928" 0.226676015211136
"1929" 0.205663693886958
"1930" 0.139603577693352
"1931" 0.452632005956199
"1932" 0.139454228505361
"1933" 0.927610510097471
"1934" 0.969164173410197
"1935" 0.137080540264279
"1936" 0.17991579158015
"1937" 0.185119086608805
"1938" 0.154612782422575
"1939" 0.229561789162518
"1940" 0.260496185881367
"1941" 0.18294723947215
"1942" 0.138216935920576
"1943" 0.184223404236588
"1944" 0.194280595701994
"1945" 0.228383910245526
"1946" 0.139090092411769
"1947" 0.791338294601194
"1948" 0.565110874325958
"1949" 0.400650423141477
"1950" 0.138595128130405
"1951" 0.159879063499935
"1952" 0.40215756207007
"1953" 0.491984157950297
"1954" 0.231003706303549
"1955" 0.228042334809089
"1956" 0.398878654324158
"1957" 0.362191677370739
"1958" 0.853019242002011
"1959" 0.177587405447278
"1960" 0.196042972419225
"1961" 0.168889003653023
"1962" 0.483253627128224
"1963" 0.447499222141659
"1964" 0.651634142258212
"1965" 0.376989161761675
"1966" 0.236670636961642
"1967" 0.481999358648382
"1968" 0.152379743001958
"1969" 0.406483424167464
"1970" 0.327818461057006
"1971" 0.279735553958394
"1972" 0.270152979897284
"1973" 0.697966293385521
"1974" 0.601981907894788
"1975" 0.1379253010383
"1976" 0.24147433407913
"1977" 0.425753395644532
"1978" 0.243878080091451
"1979" 0.163068124601425
"1980" 0.16276543958748
"1981" 0.379029249693224
"1982" 0.138319439262349
"1983" 0.283132081071898
"1984" 0.226646503407377
"1985" 0.139482293490387
"1986" 0.604346447046809
"1987" 0.193866909554758
"1988" 1.03625536262213
"1989" 0.141584923113468
"1990" 0.207839273572126
"1991" 0.273328576893255
"1992" 0.625575391114661
"1993" 0.327903342711965
"1994" 0.495317089176109
"1995" 0.557413262906114
"1996" 0.16996722962018
"1997" 0.165674657368215
"1998" 0.419610177111141
"1999" 0.229560867837252
"2000" 0.341305068828626
"2001" 0.238987565524535
"2002" 0.167407159274114
"2003" 1.0013782755185
"2004" 0.353590135578245
"2005" 0.189165444767293
"2006" 0.139636603660579
"2007" 0.223375840811016
"2008" 0.220571932221012
"2009" 0.246868489396905
"2010" 0.432016529222845
"2011" 0.339198715445191
"2012" 0.211568932436743
"2013" 0.237982168352906
"2014" 0.164126922093377
"2015" 0.160891204135468
"2016" 0.365941645916194
"2017" 0.152511316032628
"2018" 0.769386973405568
"2019" 0.526576636123371
"2020" 0.416948418414556
"2021" 0.915776394326047
"2022" 0.141622649245987
"2023" 0.398796460417475
"2024" 0.142702939511894
"2025" 0.284561293933881
"2026" 0.542714983696853
"2027" 0.116930941377661
"2028" 0.431970044644019
"2029" 0.563093023376637
"2030" 0.258942238887776
"2031" 0.39235561423318
"2032" 0.185310338513014
"2033" 0.162635721714772
"2034" 0.16112254550061
"2035" 0.115574362835282
"2036" 0.183862440421911
"2037" 0.264297053251225
"2038" 0.140037025795417
"2039" 0.619048387399037
"2040" 0.525516951522132
"2041" 0.269701837625367
"2042" 0.140266766518797
"2043" 0.695933430590878
"2044" 0.263068458280132
"2045" 0.142308966653919
"2046" 0.349318729797008
"2047" 0.139500153026313
"2048" 0.319762395802639
"2049" 0.446024005658828
"2050" 0.254061149837313
"2051" 0.191771391821563
"2052" 0.268726991044408
"2053" 0.164659070117528
"2054" 0.213062389556038
"2055" 0.292896111268878
"2056" 0.203352561269064
"2057" 0.759765849917744
"2058" 0.164791670084657
"2059" 0.242905790639165
"2060" 0.233452953602233
"2061" 0.602941794098145
"2062" 0.160695835931626
"2063" 0.418024746752331
"2064" 0.396616283570861
"2065" 0.269900513150676
"2066" 0.228558560442745
"2067" 0.2348530555318
"2068" 0.483851015686768
"2069" 0.240787370380738
"2070" 0.158884622805776
"2071" 0.140409642806201
"2072" 0.670752518938755
"2073" 0.310252653921162
"2074" 0.463316430260153
"2075" 0.180121516963667
"2076" 0.161609081883753
"2077" 0.229834412717876
"2078" 0.604257736249587
"2079" 0.219935888035172
"2080" 0.250951709854
"2081" 0.328892348851694
"2082" 0.559107213629736
"2083" 0.275693031201335
"2084" 0.182342472118059
"2085" 0.369291832059633
"2086" 0.315663639364044
"2087" 0.279009009894859
"2088" 0.553613439747574
"2089" 0.139304005239554
"2090" 0.207832091959796
"2091" 0.123500215069847
"2092" 0.269828484413855
"2093" 0.185394122341113
"2094" 0.174630604589994
"2095" 0.251792610483663
"2096" 0.226420377113886
"2097" 0.40590095387327
"2098" 0.255971572831785
"2099" 0.498046522646279
"2100" 0.406144986950136
"2101" 0.206434016304232
"2102" 0.630061659092725
"2103" 0.164128646625286
"2104" 0.2272838242542
"2105" 0.407331300498346
"2106" 0.925458112015952
"2107" 0.297005620596396
"2108" 0.354949506905437
"2109" 0.619539919587117
"2110" 0.323709210435166
"2111" 0.225257617380747
"2112" 0.328420748724013
"2113" 0.226010033014646
"2114" 0.271565861079944
"2115" 0.700158324862989
"2116" 0.952212591717004
"2117" 0.160858125149269
"2118" 0.27084891120526
"2119" 0.674895219734693
"2120" 0.346896457368658
"2121" 0.292629848267005
"2122" 0.197605008209485
"2123" 0.417991791217099
"2124" 0.136754870492897
"2125" 0.14096347740969
"2126" 0.280517124197105
"2127" 0.353512519898054
"2128" 0.160938422189759
"2129" 0.305231722417028
"2130" 0.139788811319267
"2131" 0.220993401028426
"2132" 0.309090619842225
"2133" 0.162990998911576
"2134" 0.342474811983171
"2135" 0.655259292299805
"2136" 0.321215439356662
"2137" 0.271374397339025
"2138" 0.301904738704849
"2139" 0.181712941328888
"2140" 0.410211160995033
"2141" 0.501065895827361
"2142" 0.179287527506459
"2143" 0.139209085113432
"2144" 0.296221620165285
"2145" 0.32830373070575
"2146" 0.304069444843534
"2147" 0.403458118989788
"2148" 0.158612312130362
"2149" 0.537399087233771
"2150" 0.212916431995803
"2151" 0.22675207783337
"2152" 0.407701152571856
"2153" 0.159594066884319
"2154" 0.601159074418561
"2155" 0.170532588567871
"2156" 0.304271296727018
"2157" 0.206017033976259
"2158" 0.380191013875663
"2159" 0.234111902633944
"2160" 0.138697796838252
"2161" 0.781543311366398
"2162" 0.669724962642829
"2163" 0.194998003038765
"2164" 0.538676194101689
"2165" 0.341402454610284
"2166" 0.496001969931359
"2167" 0.40429534956713
"2168" 0.15881890737499
"2169" 0.338976988936029
"2170" 0.220028104672007
"2171" 0.278393323927267
"2172" 0.498170642454954
"2173" 0.391845816553928
"2174" 0.225127450657269
"2175" 0.161076957483328
"2176" 0.24052997661457
"2177" 0.149359352194773
"2178" 0.269733706030081
"2179" 0.156892159844633
"2180" 0.139624437442323
"2181" 0.137846728529718
"2182" 0.314592856391774
"2183" 0.355984757738898
"2184" 0.0934648088556489
"2185" 0.322696635019028
"2186" 0.139901945337187
"2187" 0.593344074489452
"2188" 0.848220435020032
"2189" 0.119193696109851
"2190" 0.535242821486591
"2191" 0.355471873230061
"2192" 0.541918202373018
"2193" 0.292506390681361
"2194" 0.140356324059397
"2195" 0.336550944749336
"2196" 0.288213083912584
"2197" 0.20643035378483
"2198" 0.333037990361092
"2199" 0.907821316630386
"2200" 0.2734469775842
"2201" 0.229829067984556
"2202" 0.344618084730481
"2203" 0.268893811743362
"2204" 0.774914396966678
"2205" 0.228006639360962
"2206" 0.424473345046267
"2207" 0.556244733405461
"2208" 0.329198826684688
"2209" 0.215625306903061
"2210" 0.224816798676554
"2211" 0.140240662302927
"2212" 0.258714389081975
"2213" 0.496739495777517
"2214" 0.710498567706402
"2215" 0.436359139660225
"2216" 0.136993534085954
"2217" 0.142038947479807
"2218" 0.537379512478875
"2219" 0.138082516926639
"2220" 0.18206127315061
"2221" 0.195430854169512
"2222" 0.163346654087976
"2223" 0.327600245738092
"2224" 0.0885117334364258
"2225" 0.458651775344583
"2226" 0.256968343097338
"2227" 0.792140050749884
"2228" 0.2033752732495
"2229" 0.356149155881684
"2230" 0.140162459465413
"2231" 0.29408577842453
"2232" 0.163941097874343
"2233" 0.245163677402563
"2234" 0.819415075507896
"2235" 0.138103849150106
"2236" 0.343993212972782
"2237" 0.532783022087713
"2238" 0.139749052590481
"2239" 0.202490789162314
"2240" 0.227884929930952
"2241" 0.244319963697133
"2242" 0.13811358212471
"2243" 0.24730106474948
"2244" 0.21188073684366
"2245" 0.318058923980796
"2246" 0.255082266155407
"2247" 0.560148939433129
"2248" 0.13687265148631
"2249" 0.359011536373691
"2250" 0.1393070054526
"2251" 0.34744854309928
"2252" 0.341431611930998
"2253" 0.274466223189366
"2254" 0.137312690607586
"2255" 0.203045122114918
"2256" 0.13776570439491
"2257" 0.158968469176504
"2258" 0.280222321821324
"2259" 0.137949302742666
"2260" 0.228222914561224
"2261" 0.15105333329767
"2262" 0.109780657237456
"2263" 0.615788132770186
"2264" 0.465112999808626
"2265" 0.266084283650732
"2266" 0.22423801741971
"2267" 0.22562722760283
"2268" 0.646785588606306
"2269" 0.136799748671673
"2270" 1.40526659295929
"2271" 0.227974534719001
"2272" 0.239381432444013
"2273" 0.199955503280453
"2274" 0.525166426435657
"2275" 0.269792363738683
"2276" 0.14209285681973
"2277" 0.401332886546021
"2278" 0.182178478278662
"2279" 0.164754226480898
"2280" 1.06172657464562
"2281" 0.410404345242145
"2282" 0.474192719297613
"2283" 0.224926011156162
"2284" 0.420936101083174
"2285" 0.421956912111889
"2286" 0.492807205209998
"2287" 0.163149413838356
"2288" 0.177920120464759
"2289" 0.181469782329839
"2290" 0.111942705774651
"2291" 0.157710381942399
"2292" 0.181020123734064
"2293" 0.435965711771851
"2294" 1.02312083310288
"2295" 0.217948682892889
"2296" 0.136702560667972
"2297" 0.283032333777053
"2298" 0.278822039876912
"2299" 0.210589719822608
"2300" 0.136729231853237
"2301" 0.158530196063064
"2302" 0.229935020390146
"2303" 0.180556297624417
"2304" 0.375209763369374
"2305" 0.487563537029818
"2306" 0.211669731430946
"2307" 0.659022858641254
"2308" 0.257272479647839
"2309" 0.281792230006119
"2310" 0.246054205577533
"2311" 0.140282216434796
"2312" 0.381258504383511
"2313" 0.140009527779786
"2314" 0.201766467543591
"2315" 0.228746965419301
"2316" 0.141182823694172
"2317" 0.224697840928271
"2318" 0.262385692620922
"2319" 0.22471233946755
"2320" 0.585677448329581
"2321" 0.304438163514192
"2322" 0.545241524018867
"2323" 0.253831022333794
"2324" 0.387813812317892
"2325" 0.181828272353211
"2326" 0.22800633225254
"2327" 0.293312981287677
"2328" 0.288339618269673
"2329" 0.225477247149926
"2330" 0.18489794492124
"2331" 0.444826613421525
"2332" 0.130316459449952
"2333" 0.127357639170505
"2334" 0.471980117518058
"2335" 0.427990919704179
"2336" 0.141062815172344
"2337" 0.633760687654192
"2338" 0.255900676757943
"2339" 0.499020109571091
"2340" 0.362044377929662
"2341" 0.212579610142677
"2342" 0.439088713262972
"2343" 0.163078666554195
"2344" 0.160676369982417
"2345" 0.181749316332321
"2346" 0.485341214339181
"2347" 0.133024356374977
"2348" 0.279911086174103
"2349" 0.162613249780995
"2350" 0.241089001651598
"2351" 0.580600322778557
"2352" 0.546496560724163
"2353" 0.385506385318858
"2354" 0.260519765643627
"2355" 0.127596812191342
"2356" 0.396651995377828
"2357" 0.495407070070204
"2358" 0.615585127603935
"2359" 0.207021830921276
"2360" 0.272435261449209
"2361" 0.594956800954683
"2362" 0.163266485937444
"2363" 0.23588076262686
"2364" 0.184290620433352
"2365" 0.525853490292539
"2366" 0.217778432012486
"2367" 0.1588357983382
"2368" 0.450364823107289
"2369" 0.226127416590512
"2370" 0.355384756416341
"2371" 0.119133795309941
"2372" 0.400808279984967
"2373" 0.508639096206787
"2374" 0.339421595782486
"2375" 0.349443831431253
"2376" 0.284159263983345
"2377" 0.548553005490052
"2378" 0.589314657750156
"2379" 0.438607962864536
"2380" 0.811186277746607
"2381" 0.222751245115598
"2382" 0.570710394562986
"2383" 0.140957925834369
"2384" 0.487741641769952
"2385" 0.340083134681577
"2386" 0.14307806455239
"2387" 0.349297966551966
"2388" 0.438093288475685
"2389" 0.295089644984871
"2390" 0.224320771327576
"2391" 0.181788466376975
"2392" 0.138757517614469
"2393" 0.205105174540772
"2394" 0.139621578971626
"2395" 0.436736849334441
"2396" 0.408247863363185
"2397" 0.229834163689532
"2398" 0.197444019646926
"2399" 1.02467632616938
"2400" 0.291658251714698
"2401" 0.142606743704634
"2402" 0.141066902076729
"2403" 0.223099161727291
"2404" 0.159296549694576
"2405" 0.391117516341554
"2406" 0.571759287075748
"2407" 0.270891079553972
"2408" 0.303598826192945
"2409" 0.374323274723147
"2410" 0.161718268554458
"2411" 0.314629139791927
"2412" 0.233838354231632
"2413" 0.377340258822475
"2414" 0.399886023350901
"2415" 0.138419320370673
"2416" 0.187609662555279
"2417" 0.632417021869877
"2418" 0.195088771896799
"2419" 0.307876232713525
"2420" 0.532575467048836
"2421" 0.27185797498505
"2422" 1.11662645452788
"2423" 0.29966689409014
"2424" 0.765793040444221
"2425" 0.268636022961209
"2426" 0.263251011842666
"2427" 0.159136049210174
"2428" 0.181231537065542
"2429" 0.307285558571656
"2430" 0.228985724634021
"2431" 0.53663330035302
"2432" 0.183362066307575
"2433" 0.263632078887192
"2434" 0.224916136439209
"2435" 0.328547630811896
"2436" 0.295280717529247
"2437" 0.323837489258508
"2438" 0.182728407138091
"2439" 0.182470937933354
"2440" 0.136683732559331
"2441" 0.38876626322785
"2442" 0.199291379889542
"2443" 0.226568235208509
"2444" 0.140442716020878
"2445" 0.15840886461265
"2446" 0.187454284016922
"2447" 0.613549843505367
"2448" 0.59527442949352
"2449" 0.204748081903943
"2450" 0.147757757751859
"2451" 0.139999440449309
"2452" 0.174203690078134
"2453" 0.140767093385684
"2454" 0.485089360625933
"2455" 0.160505050730391
"2456" 0.158915121034453
"2457" 0.142628950005917
"2458" 0.501173258954
"2459" 1.26171104649124
"2460" 0.522944518061736
"2461" 0.250900302824934
"2462" 0.288171037902169
"2463" 0.159898270161592
"2464" 0.424510375594339
"2465" 1.05617799459857
"2466" 0.337007851210097
"2467" 0.18575031924601
"2468" 0.565732598723406
"2469" 0.30020206788537
"2470" 0.21156511648898
"2471" 0.317103171276129
"2472" 0.511438039522868
"2473" 0.141608334224714
"2474" 0.192666094801861
"2475" 0.142564150128875
"2476" 0.354741577340981
"2477" 0.1384626462819
"2478" 0.477202862729393
"2479" 0.163019152619979
"2480" 0.225885488737663
"2481" 0.600784111929196
"2482" 0.160567346492607
"2483" 0.226138404335041
"2484" 0.341043232251444
"2485" 0.502715762348112
"2486" 0.414821627320403
"2487" 0.518165934121245
"2488" 0.148251229584838
"2489" 0.46398334844466
"2490" 0.292087045942984
"2491" 0.341383579254193
"2492" 0.423445635308567
"2493" 0.182845179209625
"2494" 0.466875459884484
"2495" 0.507965818309219
"2496" 0.160404526009976
"2497" 0.55280687914239
"2498" 0.260797638838461
"2499" 0.266504903750894
"2500" 0.812815277172966
"2501" 0.489149809461194
"2502" 0.161793323313228
"2503" 0.352104399260878
"2504" 0.132472964094477
"2505" 0.353583796417736
"2506" 0.196042066934592
"2507" 0.507572779294531
"2508" 0.168655778733527
"2509" 0.359825657176687
"2510" 0.138699379627812
"2511" 0.490069702235756
"2512" 0.469885658483321
"2513" 0.310182351636452
"2514" 0.107515495375324
"2515" 0.29220714895971
"2516" 0.50479457485337
"2517" 0.142591553649608
"2518" 0.168818551001393
"2519" 0.212468010911576
"2520" 0.564681429613137
"2521" 0.131642806539441
"2522" 0.3432882430701
"2523" 0.136912811818418
"2524" 0.495519131345517
"2525" 0.160409303773901
"2526" 0.469664610072359
"2527" 0.359726470660354
"2528" 0.522666214511961
"2529" 0.55206653331642
"2530" 0.315603406586329
"2531" 0.337012457836427
"2532" 0.141866754149964
"2533" 0.22628349846727
"2534" 0.179355372405144
"2535" 0.191337004018656
"2536" 0.470734091668556
"2537" 0.138190737209807
"2538" 0.228905073237659
"2539" 0.138934199452017
"2540" 0.137655376359087
"2541" 0.654768396910443
"2542" 0.138608664524698
"2543" 0.227153728401896
"2544" 0.444527031367844
"2545" 0.371546861202423
"2546" 0.186114070736467
"2547" 0.226067840269156
"2548" 0.204927259179693
"2549" 0.272145996925222
"2550" 0.312609356580612
"2551" 0.142474270520338
"2552" 0.229628100957945
"2553" 0.162705411702842
"2554" 0.529005724593268
"2555" 0.328414403933089
"2556" 0.78423330632674
"2557" 0.725202164830158
"2558" 0.183067010947314
"2559" 0.226170919312314
"2560" 0.284044388124968
"2561" 0.206774174317183
"2562" 0.556372125110512
"2563" 0.159205692849114
"2564" 0.205825165504494
"2565" 0.138751068337607
"2566" 0.756967904429349
"2567" 0.159350525974406
"2568" 0.137451645356678
"2569" 0.318479698194506
"2570" 0.228703775478901
"2571" 0.438678797576124
"2572" 0.234866816465298
"2573" 0.139305706147738
"2574" 0.137237157770573
"2575" 0.160622437018769
"2576" 0.140150986643704
"2577" 0.229037366096367
"2578" 0.275557849866556
"2579" 0.138549845137929
"2580" 0.184189944795233
"2581" 0.454457793948307
"2582" 0.207310053249266
"2583" 0.255677392590844
"2584" 0.138284499773415
"2585" 0.253834695909725
"2586" 0.140371561361873
"2587" 0.474482021818224
"2588" 0.292565981694529
"2589" 0.183623179337449
"2590" 0.140827452002469
"2591" 0.160214526163179
"2592" 0.135359803485118
"2593" 0.658867342261423
"2594" 0.140575008879586
"2595" 0.160079534428326
"2596" 0.140535840743918
"2597" 0.197117811665657
"2598" 0.205753794773228
"2599" 0.142296327961167
"2600" 0.202451503977758
"2601" 0.559234965676088
"2602" 0.68158615403867
"2603" 0.109861153132415
"2604" 0.224266507631781
"2605" 0.349839270741852
"2606" 0.200627283340432
"2607" 0.227349427337884
"2608" 0.684126641444774
"2609" 0.204152785261258
"2610" 0.22670664496122
"2611" 0.517375011146599
"2612" 0.378782701541121
"2613" 0.140797071892416
"2614" 0.228773819822842
"2615" 1.12536352741174
"2616" 0.148584461318278
"2617" 0.136639603441462
"2618" 0.219933105043546
"2619" 0.283184981899941
"2620" 0.202054194421638
"2621" 0.204062327397727
"2622" 0.140037002171692
"2623" 0.271520462829273
"2624" 0.243991126363929
"2625" 0.305457035912329
"2626" 0.404327789148947
"2627" 0.253664550878673
"2628" 0.276681712259952
"2629" 0.446279689513593
"2630" 0.139570008380455
"2631" 0.227766055347913
"2632" 0.226941469234845
"2633" 0.816231922609086
"2634" 0.249616050211125
"2635" 0.233350046093035
"2636" 0.776674735552811
"2637" 0.852697728703717
"2638" 0.127669516494984
"2639" 0.182469538362071
"2640" 0.227660833304047
"2641" 0.450249077258874
"2642" 0.424489107583885
"2643" 0.228392785022826
"2644" 0.120665960102081
"2645" 0.165741344229292
"2646" 0.915093444974746
"2647" 0.272042925126268
"2648" 0.212071418690818
"2649" 0.225916541863518
"2650" 0.206850880217135
"2651" 0.52916792673862
"2652" 0.169516076137737
"2653" 0.314227432266059
"2654" 0.3657291234565
"2655" 0.138288397688002
"2656" 0.782456869070641
"2657" 0.375881151534672
"2658" 0.138038742164642
"2659" 0.227831162333377
"2660" 0.135661086932593
"2661" 0.512300293277294
"2662" 0.229927531669394
"2663" 0.320169630536243
"2664" 0.2633088174411
"2665" 0.42057359310027
"2666" 0.269718657717403
"2667" 0.181158069599647
"2668" 1.13737471049172
"2669" 0.162905900483436
"2670" 0.228125153816607
"2671" 0.228072502305619
"2672" 0.15989508615685
"2673" 0.477862654771553
"2674" 0.391640304114195
"2675" 0.214979706644499
"2676" 0.647172199700274
"2677" 0.181099929294853
"2678" 0.830739119883671
"2679" 0.537498391786717
"2680" 0.820146709159867
"2681" 0.187204123860511
"2682" 0.485709999706691
"2683" 0.249791126690342
"2684" 0.224272130078276
"2685" 0.903589493056886
"2686" 0.237176962923735
"2687" 0.516915648051302
"2688" 0.308333938883363
"2689" 0.160289989954937
"2690" 0.141658723629647
"2691" 0.361924438086349
"2692" 1.10828446083152
"2693" 0.212030802623567
"2694" 0.528495146979098
"2695" 1.08806296531288
"2696" 0.221510617051084
"2697" 0.741098975921794
"2698" 0.183388642765879
"2699" 0.226090374953041
"2700" 1.1006698150184
"2701" 0.258319065189541
"2702" 0.427129822404788
"2703" 0.276665659634469
"2704" 0.503511549353542
"2705" 0.277912615208841
"2706" 0.457416683102926
"2707" 0.269816011087177
"2708" 0.198910908487995
"2709" 0.346489905241344
"2710" 0.40540046164031
"2711" 0.472835640021739
"2712" 0.511862183752574
"2713" 0.225976392830574
"2714" 0.343482280995167
"2715" 0.29990807126
"2716" 0.328479128274684
"2717" 0.599533416861086
"2718" 0.421708816346144
"2719" 0.296548782158597
"2720" 0.1750529476445
"2721" 0.271116898739041
"2722" 0.229332043611255
"2723" 1.52507293088005
"2724" 0.140872998543824
"2725" 0.152295019846469
"2726" 0.163045020598601
"2727" 0.318935035730471
"2728" 0.164080005375986
"2729" 0.20068405690372
"2730" 0.18136427877502
"2731" 0.374710261355591
"2732" 0.510783695582057
"2733" 0.202361240031415
"2734" 0.312502904593959
"2735" 0.437139031000068
"2736" 0.870075641724094
"2737" 0.34067419972916
"2738" 0.377579336213028
"2739" 0.52028442616055
"2740" 0.229948202428567
"2741" 0.419846236212533
"2742" 0.180717035963794
"2743" 0.348166061632816
"2744" 0.570692805055106
"2745" 0.293120489406736
"2746" 0.227326937551904
"2747" 0.193742564489535
"2748" 0.112968478061276
"2749" 0.457950211537074
"2750" 0.240797907458356
"2751" 0.466372524162458
"2752" 0.639542490632318
"2753" 0.357844146390497
"2754" 0.169246958665556
"2755" 0.15471755909848
"2756" 0.181149155987728
"2757" 0.290833653088478
"2758" 0.46699045457808
"2759" 0.228874102534487
"2760" 0.394448049246412
"2761" 0.335747798611549
"2762" 0.388948244030322
"2763" 0.142419572933288
"2764" 0.192251599120605
"2765" 0.312928947960771
"2766" 0.297910780737607
"2767" 0.270468209109082
"2768" 0.137310351858834
"2769" 0.622150269698652
"2770" 0.443585867076801
"2771" 0.412386871158071
"2772" 0.186704970876285
"2773" 0.827236609260212
"2774" 0.321326650135729
"2775" 0.501397073545084
"2776" 0.528282447478158
"2777" 0.395298959135483
"2778" 0.148011346652963
"2779" 0.181658376296193
"2780" 0.237849076102139
"2781" 0.259863207678584
"2782" 0.112037932275913
"2783" 0.515511583861193
"2784" 0.179927412963384
"2785" 0.39648590909258
"2786" 0.504416064711516
"2787" 0.687724282670843
"2788" 0.262516000550271
"2789" 0.228844454759901
"2790" 0.526317798861035
"2791" 0.388814049450804
"2792" 0.488789458351052
"2793" 0.230405723149721
"2794" 0.463849814873484
"2795" 0.13795853961905
"2796" 0.520706223823567
"2797" 0.164017544247696
"2798" 0.522602405548871
"2799" 0.218611305007031
"2800" 0.227003552383538
"2801" 0.140691804574844
"2802" 0.14798877180486
"2803" 0.180798146107507
"2804" 0.224418115696334
"2805" 0.883109184401425
"2806" 0.181740752224463
"2807" 0.336276622896221
"2808" 0.165311184086744
"2809" 0.225249986917647
"2810" 0.237994970677121
"2811" 0.20804788268674
"2812" 0.420585834998542
"2813" 0.227702740985975
"2814" 0.142499775478879
"2815" 0.137115007278717
"2816" 0.300374067553524
"2817" 0.318759109852114
"2818" 0.123716478264334
"2819" 0.225153554873139
"2820" 0.185504336540819
"2821" 0.306369054310919
"2822" 0.539991103033252
"2823" 0.318874629866236
"2824" 0.218402850004636
"2825" 0.279180474113769
"2826" 0.142203604841448
"2827" 0.229544756456959
"2828" 0.140732224767924
"2829" 0.576386993484971
"2830" 0.226486972394011
"2831" 0.312627784794427
"2832" 0.400561635995958
"2833" 0.142522241641135
"2834" 0.28353403393897
"2835" 0.805554837616947
"2836" 0.161485500407964
"2837" 0.322968072648839
"2838" 0.505065683587954
"2839" 0.141894960877339
"2840" 0.371193949662551
"2841" 0.146095149942661
"2842" 0.163375422013223
"2843" 0.257901219944155
"2844" 0.141572638776588
"2845" 0.138658912187282
"2846" 0.320031734058244
"2847" 0.159846090551679
"2848" 0.343065211573114
"2849" 0.207819513596357
"2850" 0.42705369595396
"2851" 0.305859297941959
"2852" 0.229837596149198
"2853" 0.393978585806402
"2854" 0.291616345157263
"2855" 0.161189542384056
"2856" 0.186694623684836
"2857" 0.141566969082643
"2858" 0.229889473848791
"2859" 0.436639195636208
"2860" 0.138609748439467
"2861" 0.245450860789094
"2862" 0.383972338265464
"2863" 0.244650316026466
"2864" 0.549594019801015
"2865" 0.154809653384282
"2866" 0.351392985019442
"2867" 0.547455973897486
"2868" 0.141641336568217
"2869" 0.162078148791248
"2870" 0.25663233906843
"2871" 0.16418959583519
"2872" 0.546854383412629
"2873" 0.283113108278095
"2874" 0.136696064143661
"2875" 0.198666188758341
"2876" 0.220489033837626
"2877" 0.393468681397285
"2878" 0.364560406933547
"2879" 0.552064243731435
"2880" 0.164878753685589
"2881" 0.22904281398139
"2882" 0.138510909551603
"2883" 0.227008189003265
"2884" 0.374277080110522
"2885" 0.547182478770088
"2886" 1.29595342420947
"2887" 0.205134805936826
"2888" 0.353486574666018
"2889" 0.159600350795108
"2890" 0.253961964515296
"2891" 0.190188074722982
"2892" 0.279322177080214
"2893" 0.129492248045035
"2894" 0.196950710276681
"2895" 0.571487172844897
"2896" 0.155966900333609
"2897" 0.229669844079612
"2898" 0.422635772423413
"2899" 0.341005032688492
"2900" 0.269607690487092
"2901" 0.152571785442318
"2902" 1.32449232259661
"2903" 0.163270751060293
"2904" 0.312563271083965
"2905" 0.140222755519552
"2906" 0.336151941394897
"2907" 0.182040868023931
"2908" 0.340057768572697
"2909" 0.13709376955015
"2910" 0.226122269331024
"2911" 0.345826219356654
"2912" 0.660260951491967
"2913" 0.184523999210347
"2914" 0.139137339861308
"2915" 0.27788284933572
"2916" 0.663788021252634
"2917" 0.181796102611598
"2918" 0.173671229379605
"2919" 0.223632558152661
"2920" 0.162967621974726
"2921" 0.149739120831198
"2922" 0.43268975419571
"2923" 0.455043159613843
"2924" 0.50289754934716
"2925" 0.274335347754145
"2926" 0.16058286727978
"2927" 0.240785553913884
"2928" 0.447450673958769
"2929" 0.236358933950804
"2930" 0.136631878483463
"2931" 0.234929699060796
"2932" 0.161279737765224
"2933" 0.703651115575463
"2934" 0.229580924379581
"2935" 0.18496941266067
"2936" 0.556807188115548
"2937" 0.13882493972496
"2938" 0.116040152807524
"2939" 0.293852287614083
"2940" 0.192942992178453
"2941" 0.330302825513006
"2942" 0.194123083880758
"2943" 0.141512138417454
"2944" 0.185257343596588
"2945" 0.629018363345531
"2946" 0.142581990696184
"2947" 0.508497509659338
"2948" 0.259310907837723
"2949" 0.202998181773802
"2950" 0.142543243132455
"2951" 0.569470305355545
"2952" 1.00183622312136
"2953" 0.162833357796191
"2954" 0.294470777488026
"2955" 0.141205313480152
"2956" 0.318720024569364
"2957" 0.16125479688339
"2958" 0.448673252243801
"2959" 0.226021084665445
"2960" 0.748900974493277
"2961" 0.86448945885873
"2962" 0.449456023791826
"2963" 0.424934847460224
"2964" 0.303289787017411
"2965" 0.207736226884683
"2966" 0.496028938881722
"2967" 0.139070980818431
"2968" 0.205341726142079
"2969" 0.412397107538233
"2970" 0.158984645656449
"2971" 0.150101444581576
"2972" 0.486096044542857
"2973" 0.226374358098036
"2974" 0.338219192324777
"2975" 0.540252326802258
"2976" 0.162682118710219
"2977" 0.626325925711266
"2978" 0.361607687700171
"2979" 0.159355638401746
"2980" 0.202478378980441
"2981" 0.516700053252383
"2982" 0.28912336019455
"2983" 0.686259241678759
"2984" 0.336778745979073
"2985" 0.300406145470048
"2986" 0.183069510100034
"2987" 1.0579737668045
"2988" 0.433411066039576
"2989" 0.607047438277169
"2990" 0.647549955882846
"2991" 0.408659241973439
"2992" 0.147846995318661
"2993" 0.432515089913656
"2994" 0.253685135929341
"2995" 0.49377682047997
"2996" 0.22594118356359
"2997" 0.288702421848997
"2998" 0.535793336739922
"2999" 0.419528463347345
"3000" 0.185249814530155
